/* XPM */
static const char *next[]={
"20 20 4 1",
". c None",
"a c #008000",
"c c #00c000",
"# c #303030",
"....................",
"....................",
"...........#........",
"...........a#.......",
"............a#......",
"............ca#.....",
".##########...a#....",
"..aaaaaaaaa..cca#...",
"...cccccccc..ccca#..",
"...cccccccc..cccca#.",
"...cccccccc..ccca#..",
"..aaaaaaaaa..cca#...",
".##########...a#....",
"............ca#.....",
"............a#......",
"...........a#.......",
"...........#........",
"....................",
"....................",
"...................."};
