/* XPM */
static const char * settings[] = {
"32 32 115 2",
"  	c None",
". 	c #464646464646",
"X 	c #000000000000",
"o 	c #303030303030",
"O 	c #FDFDFDFDFDFD",
"+ 	c #ECECECECECEC",
"@ 	c #CECECECECECE",
"# 	c #B5B5B5B5B5B5",
"$ 	c #A0A0A0A0A0A0",
"% 	c #929292929292",
"& 	c #686868686868",
"* 	c #DCDCDCDCDCDC",
"= 	c #9B9B9B9B9B9B",
"- 	c #8E8E8E8E8E8E",
"; 	c #BBBBBBBBBBBB",
": 	c #E6E6E6E6E6E6",
"> 	c #D7D7D7D7D7D7",
", 	c #BCBCBCBCBCBC",
"< 	c #EEEEEEEEEEEE",
"1 	c #DBDBDBDBDBDB",
"2 	c #CFCFCFCFCFCF",
"3 	c #A3A3A3A3A3A3",
"4 	c #E2E2E2E2E2E2",
"5 	c #C1C1C1C1C1C1",
"6 	c #E3E3E3E3E3E3",
"7 	c #DADADADADADA",
"8 	c #D6D6D6D6D6D6",
"9 	c #B8B8B8B8B8B8",
"0 	c #E5E5E5E5E5E5",
"q 	c #5D5D5D5D5D5D",
"w 	c #E0E0E0E0E0E0",
"e 	c #D8D8D8D8D8D8",
"r 	c #C7C7C7C7C7C7",
"t 	c #A8A8A8A8A8A8",
"y 	c #A2A2A2A2A2A2",
"u 	c #C3C3C3C3C3C3",
"i 	c #636363636363",
"p 	c #DFDFDFDFDFDF",
"a 	c #DDDDDDDDDDDD",
"s 	c #D9D9D9D9D9D9",
"d 	c #D1D1D1D1D1D1",
"f 	c #B0B0B0B0B0B0",
"g 	c #3D3D3D3D3D3D",
"h 	c #BFBFBFBFBFBF",
"j 	c #505050505050",
"k 	c #E4E4E4E4E4E4",
"l 	c #C2C2C2C2C2C2",
"z 	c #EFEFEFEFEFEF",
"x 	c #E1E1E1E1E1E1",
"c 	c #C4C4C4C4C4C4",
"v 	c #A4A4A4A4A4A4",
"b 	c #DEDEDEDEDEDE",
"n 	c #D4D4D4D4D4D4",
"m 	c #999999999999",
"M 	c #323232323232",
"N 	c #C5C5C5C5C5C5",
"B 	c #646464646464",
"V 	c #BDBDBDBDBDBD",
"C 	c #B9B9B9B9B9B9",
"Z 	c #989898989898",
"A 	c #313131313131",
"S 	c #E7E7E7E7E7E7",
"D 	c #D2D2D2D2D2D2",
"F 	c #B1B1B1B1B1B1",
"G 	c #878787878787",
"H 	c #777777777777",
"J 	c #F1F1F1F1F1F1",
"K 	c #D5D5D5D5D5D5",
"L 	c #CDCDCDCDCDCD",
"P 	c #979797979797",
"I 	c #8D8D8D8D8D8D",
"U 	c #838383838383",
"Y 	c #EDEDEDEDEDED",
"T 	c #A6A6A6A6A6A6",
"R 	c #969696969696",
"E 	c #898989898989",
"W 	c #747474747474",
"Q 	c #F3F3F3F3F3F3",
"! 	c #787878787878",
"~ 	c #E9E9E9E9E9E9",
"^ 	c #CBCBCBCBCBCB",
"/ 	c #B6B6B6B6B6B6",
"( 	c #B7B7B7B7B7B7",
") 	c #B4B4B4B4B4B4",
"_ 	c #9A9A9A9A9A9A",
"` 	c #797979797979",
"' 	c #C0C0C0C0C0C0",
"] 	c #C9C9C9C9C9C9",
"[ 	c #888888888888",
"{ 	c #7B7B7B7B7B7B",
"} 	c #767676767676",
"| 	c #C6C6C6C6C6C6",
" .	c #BEBEBEBEBEBE",
"..	c #ADADADADADAD",
"X.	c #A5A5A5A5A5A5",
"o.	c #ABABABABABAB",
"O.	c #8F8F8F8F8F8F",
"+.	c #949494949494",
"@.	c #E8E8E8E8E8E8",
"#.	c #D3D3D3D3D3D3",
"$.	c #B3B3B3B3B3B3",
"%.	c #AAAAAAAAAAAA",
"&.	c #0E0E0E0E0E0E",
"*.	c #AEAEAEAEAEAE",
"=.	c #A1A1A1A1A1A1",
"-.	c #8B8B8B8B8B8B",
";.	c #9F9F9F9F9F9F",
":.	c #9E9E9E9E9E9E",
">.	c #F2F2F2F2F2F2",
",.	c #CCCCCCCCCCCC",
"<.	c #9D9D9D9D9D9D",
"1.	c #656565656565",
"2.	c #FFFFFFFFFFFF",
"3.	c #F0F0F0F0F0F0",
"4.	c #131313131313",
"                                                                ",
"                  . . . . . . X                                 ",
"                o O O + @ # $ % . .                             ",
"              X X & & O + * @ # $ = - .                         ",
"              X ; $ $ & & O + + * @ # $ % o                     ",
"              X : > , $ $ & & O + < 1 2 # 3 o                   ",
"                X X 4 * 5 $ $ & & O 6 7 8 9 =                   ",
"    . .               X 0 * 5 $ $ q w 4 e r t X                 ",
"  o O y . .             X X 0 > u i p a s d f g                 ",
"  o O w h 3 o X             X X $ j k a a s l $ X               ",
"  X O z x u c v o X           . & l b b e n 5 m M               ",
"  X & O z 0 p N u 3 o X       B V p b * e > C Z A               ",
"  X $ & O z 4 S p h V $ o o o ; s 4 p > D e F G H X             ",
"  X u $ & O z J a a 1 d ; ; ; K s p e > p L P I U H X           ",
"    X u $ & O O + Y + s s s s s s b > > 4 V T T $ R E W .       ",
"    X Q u $ & ! O O O + + + + + + ~ 7 ^ N # / ( ) F t _ I ` .   ",
"      X Q u $ $ & & ! O O O O O O k L 9 ' ^ e d ] ' 9 f t R [ { ",
"        X Q * u u $ $ & & & & & & } n * d p S b 8 @ |  .# ..X.= ",
"          X u Q * * 5 V  .( o.3 O.+.& ! k @.k + k * #.^ u ; $.%.",
"            &.X u Q s d K 9 *.=.-.X.;.:.B ! ~ J >.~ x s d ] ' 9 ",
"                X X X ; S ] , X.:., ,. .$ <.1.! O 2.3.S b 8 @ | ",
"                      X X 4.X X X C x K * u $ $ & ! 2.O + k * #.",
"                                    X c >.* * u $ 3 & ! O O ~ x ",
"                                        X u Q * * u $ $ & ! O O ",
"                                            X u Q * * u $ $ & ! ",
"                                                X u Q * * u $ $ ",
"                                                    X u Q * * u ",
"                                                        X u Q * ",
"                                                            X u ",
"                                                              XX",
"                                                                ",
"                                                                "};
